{
    "slug": "rocm5.4",
    "template": "rocm.yaml.j2",
    "platform": "linux/amd64",
    "versions": {
        "rocm": "5.4"
    },
    "image": {
        "bootstrap": "docker.io/rocm/dev-ubuntu-22.04:5.4.2",
        "rocm": "5.4.2"
    }
}